sevensegment.vcd
$date
  Mon Feb  1 14:13:27 2021
$end
$version
  GHDL v0
$end
$timescale
  1 fs
$end
$var reg 1 ! clk $end
$var reg 4 " value[3:0] $end
$var reg 1 # bcd $end
$var reg 7 $ segments[6:0] $end
$scope module comp1 $end
$var reg 1 % clk $end
$var reg 4 & value[3:0] $end
$var reg 1 ' bcd $end
$var reg 4 ( z[3:0] $end
$upscope $end
$scope module comp2 $end
$var reg 4 ) value[3:0] $end
$var reg 1 * bcd $end
$var reg 7 + segments[6:0] $end
$var reg 1 , clk $end
$comment rom is not handled $end
$upscope $end
$enddefinitions $end
#0
0!
b1010 "
0#
bUUUUUUU $
0%
b1010 &
0'
b1010 (
b1010 )
0*
bUUUUUUU +
0,
#1
1!
b1001 "
1#
1%
b1001 &
1'
b1001 (
b1001 )
1*
1,
#2
0!
b1111011 $
0%
b1111011 +
0,
#3
1!
b1000 "
1%
b1000 &
b1000 (
b1000 )
1,
#4
0!
b1111111 $
0%
b1111111 +
0,
#5
1!
b0111 "
1%
b0111 &
b0111 (
b0111 )
1,
#6
0!
b1110000 $
0%
b1110000 +
0,
#7
1!
b0110 "
1%
b0110 &
b0110 (
b0110 )
1,
#8
0!
b1011111 $
0%
b1011111 +
0,
#9
1!
b0101 "
1%
b0101 &
b0101 (
b0101 )
1,
#10
0!
b1011011 $
0%
b1011011 +
0,
#11
1!
b0100 "
1%
b0100 &
b0100 (
b0100 )
1,
#12
0!
b0110011 $
0%
b0110011 +
0,
#13
1!
b0011 "
1%
b0011 &
b0011 (
b0011 )
1,
#14
0!
b1111001 $
0%
b1111001 +
0,
#15
1!
b0010 "
1%
b0010 &
b0010 (
b0010 )
1,
#16
0!
b1101101 $
0%
b1101101 +
0,
#17
1!
b0001 "
1%
b0001 &
b0001 (
b0001 )
1,
#18
0!
b0110000 $
0%
b0110000 +
0,
#19
1!
b0000 "
1%
b0000 &
b0000 (
b0000 )
1,
#20
0!
b1111110 $
0%
b1111110 +
0,
#21
1!
b1111 "
0#
1%
b1111 &
0'
b1111 (
b1111 )
0*
1,
#22
0!
0%
0,
#23
1!
b1110 "
1%
b1110 &
b1110 (
b1110 )
1,
#24
0!
0%
0,
#25
1!
b1101 "
1%
b1101 &
b1101 (
b1101 )
1,
#26
0!
0%
0,
#27
1!
b1100 "
1%
b1100 &
b1100 (
b1100 )
1,
#28
0!
0%
0,
#29
1!
b1011 "
1%
b1011 &
b1011 (
b1011 )
1,
#30
0!
0%
0,
#31
1!
b1010 "
1%
b1010 &
b1010 (
b1010 )
1,
#32
0!
0%
0,
#33
1!
b1001 "
1#
1%
b1001 &
1'
b1001 (
b1001 )
1*
1,
#34
0!
b1111011 $
0%
b1111011 +
0,
#35
1!
b1000 "
1%
b1000 &
b1000 (
b1000 )
1,
#36
0!
b1111111 $
0%
b1111111 +
0,
#37
1!
b0111 "
1%
b0111 &
b0111 (
b0111 )
1,
#38
0!
b1110000 $
0%
b1110000 +
0,
#39
1!
b0110 "
1%
b0110 &
b0110 (
b0110 )
1,
#40
0!
b1011111 $
0%
b1011111 +
0,
#41
1!
b0101 "
1%
b0101 &
b0101 (
b0101 )
1,
#42
0!
b1011011 $
0%
b1011011 +
0,
#43
1!
b0100 "
1%
b0100 &
b0100 (
b0100 )
1,
#44
0!
b0110011 $
0%
b0110011 +
0,
#45
1!
b0011 "
1%
b0011 &
b0011 (
b0011 )
1,
#46
0!
b1111001 $
0%
b1111001 +
0,
#47
1!
b0010 "
1%
b0010 &
b0010 (
b0010 )
1,
#48
0!
b1101101 $
0%
b1101101 +
0,
#49
1!
b0001 "
1%
b0001 &
b0001 (
b0001 )
1,
#50
0!
b0110000 $
0%
b0110000 +
0,
#51
1!
b0000 "
1%
b0000 &
b0000 (
b0000 )
1,
#52
0!
b1111110 $
0%
b1111110 +
0,
#53
1!
b1111 "
0#
1%
b1111 &
0'
b1111 (
b1111 )
0*
1,
#54
0!
0%
0,
#55
1!
b1110 "
1%
b1110 &
b1110 (
b1110 )
1,
#56
0!
0%
0,
#57
1!
b1101 "
1%
b1101 &
b1101 (
b1101 )
1,
#58
0!
0%
0,
#59
1!
b1100 "
1%
b1100 &
b1100 (
b1100 )
1,
#60
0!
0%
0,
#61
1!
b1011 "
1%
b1011 &
b1011 (
b1011 )
1,
#62
0!
0%
0,
#63
1!
b1010 "
1%
b1010 &
b1010 (
b1010 )
1,
#64
0!
0%
0,
#65
1!
b1001 "
1#
1%
b1001 &
1'
b1001 (
b1001 )
1*
1,
#66
0!
b1111011 $
0%
b1111011 +
0,
#67
1!
b1000 "
1%
b1000 &
b1000 (
b1000 )
1,
#68
0!
b1111111 $
0%
b1111111 +
0,
#69
1!
b0111 "
1%
b0111 &
b0111 (
b0111 )
1,
#70
0!
b1110000 $
0%
b1110000 +
0,
#71
1!
b0110 "
1%
b0110 &
b0110 (
b0110 )
1,
#72
0!
b1011111 $
0%
b1011111 +
0,
#73
1!
b0101 "
1%
b0101 &
b0101 (
b0101 )
1,
#74
0!
b1011011 $
0%
b1011011 +
0,
#75
1!
b0100 "
1%
b0100 &
b0100 (
b0100 )
1,
#76
0!
b0110011 $
0%
b0110011 +
0,
#77
1!
b0011 "
1%
b0011 &
b0011 (
b0011 )
1,
#78
0!
b1111001 $
0%
b1111001 +
0,
#79
1!
b0010 "
1%
b0010 &
b0010 (
b0010 )
1,
#80
0!
b1101101 $
0%
b1101101 +
0,
#81
1!
b0001 "
1%
b0001 &
b0001 (
b0001 )
1,
#82
0!
b0110000 $
0%
b0110000 +
0,
#83
1!
b0000 "
1%
b0000 &
b0000 (
b0000 )
1,
#84
0!
b1111110 $
0%
b1111110 +
0,
#85
1!
b1111 "
0#
1%
b1111 &
0'
b1111 (
b1111 )
0*
1,
#86
0!
0%
0,
#87
1!
b1110 "
1%
b1110 &
b1110 (
b1110 )
1,
#88
0!
0%
0,
#89
1!
b1101 "
1%
b1101 &
b1101 (
b1101 )
1,
#90
0!
0%
0,
#91
1!
b1100 "
1%
b1100 &
b1100 (
b1100 )
1,
#92
0!
0%
0,
#93
1!
b1011 "
1%
b1011 &
b1011 (
b1011 )
1,
#94
0!
0%
0,
#95
1!
b1010 "
1%
b1010 &
b1010 (
b1010 )
1,
#96
0!
0%
0,
#97
1!
b1001 "
1#
1%
b1001 &
1'
b1001 (
b1001 )
1*
1,
#98
0!
b1111011 $
0%
b1111011 +
0,
#99
1!
b1000 "
1%
b1000 &
b1000 (
b1000 )
1,
